# 3ds Max Wavefront OBJ Exporter v0.97b - (c)2007 guruware
# File Created: 20.08.2010 18:13:43

newmtl leaf
	Ns 10.0000
	Ni 1.5000
	d 1.0000
	Tr 0.0000
	Tf 1.0000 1.0000 1.0000 
	illum 2
	Ka 0.5880 0.5880 0.5880
	Kd 0.5880 0.5880 0.5880
	Ks 0.0000 0.0000 0.0000
	Ke 0.0000 0.0000 0.0000
	map_Ka textures\sponza_thorn_diff.png
	map_Kd textures\sponza_thorn_diff.png	
	map_Ks textures\sponza_thorn_spec.png
	map_d textures\sponza_thorn_mask.png
	map_bump textures\sponza_thorn_ddn.png
	bump textures\sponza_thorn_ddn.png

newmtl vase_round
	Ns 10.0000
	Ni 1.5000
	d 1.0000
	Tr 0.0000
	Tf 1.0000 1.0000 1.0000 
	illum 2
	Ka 0.5880 0.5880 0.5880
	Kd 0.5880 0.5880 0.5880
	Ks 0.0000 0.0000 0.0000
	Ke 0.0000 0.0000 0.0000
	map_Ka textures\vase_round.png
	map_Kd textures\vase_round.png
	map_Ks textures\vase_round_spec.png
	map_bump textures\vase_round_ddn.png
	bump textures\vase_round_ddn.png

newmtl Material__57
	Ns 10.0000
	Ni 1.5000
	d 1.0000
	Tr 0.0000
	Tf 1.0000 1.0000 1.0000 
	illum 2
	Ka 0.5880 0.5880 0.5880
	Kd 0.5880 0.5880 0.5880
	Ks 0.0000 0.0000 0.0000
	Ke 0.0000 0.0000 0.0000
	map_Ka textures\vase_plant.png
	map_Kd textures\vase_plant.png
	map_Ks textures\vase_plant_spec.png
	map_d textures\vase_plant_mask.png

newmtl Material__298
	Ns 10.0000
	Ni 1.5000
	d 1.0000
	Tr 0.0000
	Tf 1.0000 1.0000 1.0000 
	illum 2
	Ka 0.5880 0.5880 0.5880
	Kd 0.5880 0.5880 0.5880
	Ks 0.0000 0.0000 0.0000
	Ke 0.0000 0.0000 0.0000
	map_Ka textures\background.png
	map_Kd textures\background.png
	map_bump textures\background_ddn.png
	bump textures\background_ddn.png

newmtl 16___Default
	Ns 10.0000
	Ni 1.5000
	d 1.0000
	Tr 0.0000
	Tf 1.0000 1.0000 1.0000 
	illum 2
	Ka 0.5880 0.5880 0.5880
	Kd 0.5880 0.5880 0.5880
	Ks 0.0000 0.0000 0.0000
	Ke 0.0000 0.0000 0.0000
	map_Ka textures\gi_flag.png
	map_Kd textures\gi_flag.png

newmtl bricks
	Ns 10.0000
	Ni 1.5000
	d 1.0000
	Tr 0.0000
	Tf 1.0000 1.0000 1.0000 
	illum 2
	Ka 0.5880 0.5880 0.5880
	Kd 0.5880 0.5880 0.5880
	Ks 0.0000 0.0000 0.0000
	Ke 0.0000 0.0000 0.0000
	map_Ka textures\spnza_bricks_a_diff.png
	map_Kd textures\spnza_bricks_a_diff.png
	map_Ks textures\spnza_bricks_a_spec.png
	map_bump textures\spnza_bricks_a_diff.png
	bump textures\spnza_bricks_a_diff.png

newmtl arch
	Ns 10.0000
	Ni 1.5000
	d 1.0000
	Tr 0.0000
	Tf 1.0000 1.0000 1.0000 
	illum 2
	Ka 0.5880 0.5880 0.5880
	Kd 0.5880 0.5880 0.5880
	Ks 0.0000 0.0000 0.0000
	Ke 0.0000 0.0000 0.0000
	map_Ka textures\sponza_arch_diff.png
	map_Kd textures\sponza_arch_diff.png
	map_Ks textures\sponza_arch_spec.png

newmtl ceiling
	Ns 10.0000
	Ni 1.5000
	d 1.0000
	Tr 0.0000
	Tf 1.0000 1.0000 1.0000 
	illum 2
	Ka 0.5880 0.5880 0.5880
	Kd 0.5880 0.5880 0.5880
	Ks 0.0000 0.0000 0.0000
	Ke 0.0000 0.0000 0.0000
	map_Ka textures\sponza_ceiling_a_diff.png
	map_Kd textures\sponza_ceiling_a_diff.png
	map_Ks textures\sponza_ceiling_a_spec.png

newmtl column_a
	Ns 10.0000
	Ni 1.5000
	d 1.0000
	Tr 0.0000
	Tf 1.0000 1.0000 1.0000 
	illum 2
	Ka 0.5880 0.5880 0.5880
	Kd 0.5880 0.5880 0.5880
	Ks 0.0000 0.0000 0.0000
	Ke 0.0000 0.0000 0.0000
	map_Ka textures\sponza_column_a_diff.png
	map_Kd textures\sponza_column_a_diff.png
	map_Ks textures\sponza_column_a_spec.png
	map_bump textures\sponza_column_a_ddn.png
	bump textures\sponza_column_a_ddn.png

newmtl floor
	Ns 10.0000
	Ni 1.5000
	d 1.0000
	Tr 0.0000
	Tf 1.0000 1.0000 1.0000 
	illum 2
	Ka 0.5880 0.5880 0.5880
	Kd 0.5880 0.5880 0.5880
	Ks 0.0000 0.0000 0.0000
	Ke 0.0000 0.0000 0.0000
	map_Ka textures\sponza_floor_a_diff.png
	map_Kd textures\sponza_floor_a_diff.png
	map_Ks textures\sponza_floor_a_spec.png

newmtl column_c
	Ns 10.0000
	Ni 1.5000
	d 1.0000
	Tr 0.0000
	Tf 1.0000 1.0000 1.0000 
	illum 2
	Ka 0.5880 0.5880 0.5880
	Kd 0.5880 0.5880 0.5880
	Ks 0.0000 0.0000 0.0000
	Ke 0.0000 0.0000 0.0000
	map_Ka textures\sponza_column_c_diff.png
	map_Kd textures\sponza_column_c_diff.png
	map_Ks textures\sponza_column_c_spec.png
	map_bump textures\sponza_column_c_ddn.png
	bump textures\sponza_column_c_ddn.png

newmtl details
	Ns 10.0000
	Ni 1.5000
	d 1.0000
	Tr 0.0000
	Tf 1.0000 1.0000 1.0000 
	illum 2
	Ka 0.5880 0.5880 0.5880
	Kd 0.5880 0.5880 0.5880
	Ks 0.0000 0.0000 0.0000
	Ke 0.0000 0.0000 0.0000
	map_Ka textures\sponza_details_diff.png
	map_Kd textures\sponza_details_diff.png
	map_Ks textures\sponza_details_spec.png

newmtl column_b
	Ns 10.0000
	Ni 1.5000
	d 1.0000
	Tr 0.0000
	Tf 1.0000 1.0000 1.0000 
	illum 2
	Ka 0.5880 0.5880 0.5880
	Kd 0.5880 0.5880 0.5880
	Ks 0.0000 0.0000 0.0000
	Ke 0.0000 0.0000 0.0000
	map_Ka textures\sponza_column_b_diff.png
	map_Kd textures\sponza_column_b_diff.png
	map_Ks textures\sponza_column_b_spec.png
	map_bump textures\sponza_column_b_ddn.png
	bump textures\sponza_column_b_ddn.png

newmtl Material__47
	Ns 10.0000
	Ni 1.5000
	d 1.0000
	Tr 0.0000
	Tf 1.0000 1.0000 1.0000 
	illum 2
	Ka 0.5880 0.5880 0.5880
	Kd 0.5880 0.5880 0.5880
	Ks 0.0000 0.0000 0.0000
	Ke 0.0000 0.0000 0.0000

newmtl flagpole
	Ns 10.0000
	Ni 1.5000
	d 1.0000
	Tr 0.0000
	Tf 1.0000 1.0000 1.0000 
	illum 2
	Ka 0.5880 0.5880 0.5880
	Kd 0.5880 0.5880 0.5880
	Ks 0.0000 0.0000 0.0000
	Ke 0.0000 0.0000 0.0000
	map_Ka textures\sponza_flagpole_diff.png
	map_Kd textures\sponza_flagpole_diff.png
	map_Ks textures\sponza_flagpole_spec.png

newmtl fabric_e
	Ns 10.0000
	Ni 1.5000
	d 1.0000
	Tr 0.0000
	Tf 1.0000 1.0000 1.0000 
	illum 2
	Ka 0.5880 0.5880 0.5880
	Kd 0.5880 0.5880 0.5880
	Ks 0.0000 0.0000 0.0000
	Ke 0.0000 0.0000 0.0000
	map_Ka textures\sponza_fabric_green_diff.png
	map_Kd textures\sponza_fabric_green_diff.png
	map_Ks textures\sponza_fabric_spec.png

newmtl fabric_d
	Ns 10.0000
	Ni 1.5000
	d 1.0000
	Tr 0.0000
	Tf 1.0000 1.0000 1.0000 
	illum 2
	Ka 0.5880 0.5880 0.5880
	Kd 0.5880 0.5880 0.5880
	Ks 0.0000 0.0000 0.0000
	Ke 0.0000 0.0000 0.0000
	map_Ka textures\sponza_fabric_blue_diff.png
	map_Kd textures\sponza_fabric_blue_diff.png
	map_Ks textures\sponza_fabric_spec.png

newmtl fabric_a
	Ns 10.0000
	Ni 1.5000
	d 1.0000
	Tr 0.0000
	Tf 1.0000 1.0000 1.0000 
	illum 2
	Ka 0.5880 0.5880 0.5880
	Kd 0.5880 0.5880 0.5880
	Ks 0.0000 0.0000 0.0000
	Ke 0.0000 0.0000 0.0000
	map_Ka textures\sponza_fabric_diff.png
	map_Kd textures\sponza_fabric_diff.png
	map_Ks textures\sponza_fabric_spec.png

newmtl fabric_g
	Ns 10.0000
	Ni 1.5000
	d 1.0000
	Tr 0.0000
	Tf 1.0000 1.0000 1.0000 
	illum 2
	Ka 0.5880 0.5880 0.5880
	Kd 0.5880 0.5880 0.5880
	Ks 0.0000 0.0000 0.0000
	Ke 0.0000 0.0000 0.0000
	map_Ka textures\sponza_curtain_blue_diff.png
	map_Kd textures\sponza_curtain_blue_diff.png

newmtl fabric_c
	Ns 10.0000
	Ni 1.5000
	d 1.0000
	Tr 0.0000
	Tf 1.0000 1.0000 1.0000 
	illum 2
	Ka 0.5880 0.5880 0.5880
	Kd 0.5880 0.5880 0.5880
	Ks 0.0000 0.0000 0.0000
	Ke 0.0000 0.0000 0.0000
	map_Ka textures\sponza_curtain_diff.png
	map_Kd textures\sponza_curtain_diff.png

newmtl fabric_f
	Ns 10.0000
	Ni 1.5000
	d 1.0000
	Tr 0.0000
	Tf 1.0000 1.0000 1.0000 
	illum 2
	Ka 0.5880 0.5880 0.5880
	Kd 0.5880 0.5880 0.5880
	Ks 0.0000 0.0000 0.0000
	Ke 0.0000 0.0000 0.0000
	map_Ka textures\sponza_curtain_green_diff.png
	map_Kd textures\sponza_curtain_green_diff.png

newmtl chain
	Ns 10.0000
	Ni 1.5000
	d 1.0000
	Tr 0.0000
	Tf 1.0000 1.0000 1.0000 
	illum 2
	Ka 0.5880 0.5880 0.5880
	Kd 0.5880 0.5880 0.5880
	Ks 0.0000 0.0000 0.0000
	Ke 0.0000 0.0000 0.0000
	map_Ka textures\chain_texture.png
	map_Kd textures\chain_texture.png
	map_d textures\chain_texture_mask.png
	map_bump textures\chain_texture_ddn.png
	bump textures\chain_texture_ddn.png

newmtl vase_hanging
	Ns 10.0000
	Ni 1.5000
	d 1.0000
	Tr 0.0000
	Tf 1.0000 1.0000 1.0000 
	illum 2
	Ka 0.5880 0.5880 0.5880
	Kd 0.5880 0.5880 0.5880
	Ks 0.0000 0.0000 0.0000
	Ke 0.0000 0.0000 0.0000
	map_Ka textures\vase_hanging.png
	map_Kd textures\vase_hanging.png

newmtl vase
	Ns 10.0000
	Ni 1.5000
	d 1.0000
	Tr 0.0000
	Tf 1.0000 1.0000 1.0000 
	illum 2
	Ka 0.5880 0.5880 0.5880
	Kd 0.5880 0.5880 0.5880
	Ks 0.0000 0.0000 0.0000
	Ke 0.0000 0.0000 0.0000
	map_Ka textures\vase_dif.png
	map_Kd textures\vase_dif.png

newmtl Material__25
	Ns 10.0000
	Ni 1.5000
	d 1.0000
	Tr 0.0000
	Tf 1.0000 1.0000 1.0000 
	illum 2
	Ka 0.5880 0.5880 0.5880
	Kd 0.5880 0.5880 0.5880
	Ks 0.0000 0.0000 0.0000
	Ke 0.0000 0.0000 0.0000
	map_Ka textures\lion.png
	map_Kd textures\lion.png
	map_bump textures\lion_ddn.png
	bump textures\lion_ddn.png

newmtl roof
	Ns 10.0000
	Ni 1.5000
	d 1.0000
	Tr 0.0000
	Tf 1.0000 1.0000 1.0000 
	illum 2
	Ka 0.5880 0.5880 0.5880
	Kd 0.5880 0.5880 0.5880
	Ks 0.0000 0.0000 0.0000
	Ke 0.0000 0.0000 0.0000
	map_Ka textures\sponza_roof_diff.png
	map_Kd textures\sponza_roof_diff.png
